name: Post
description: ''
endpoints:
  -
    httpMethods:
      - GET
    uri: api/v1/posts
    metadata:
      groupName: Post
      groupDescription: ''
      subgroup: ''
      subgroupDescription: ''
      title: 'Get list post paginate'
      description: ''
      authenticated: false
      custom: []
    headers:
      Content-Type: application/json
      Accept: application/json
    urlParameters: []
    cleanUrlParameters: []
    queryParameters:
      page:
        name: page
        description: 'The number page'
        required: false
        example: 1
        type: integer
        enumValues: []
        exampleWasSpecified: true
        nullable: false
        custom: []
      per_page:
        name: per_page
        description: 'The limit of posts or jobs displayed.'
        required: false
        example: 10
        type: integer
        enumValues: []
        exampleWasSpecified: true
        nullable: false
        custom: []
      search:
        name: search
        description: 'Search for posts or jobs'
        required: false
        example: null
        type: string
        enumValues: []
        exampleWasSpecified: false
        nullable: false
        custom: []
    cleanQueryParameters:
      page: 1
      per_page: 10
    bodyParameters:
      page:
        name: page
        description: ''
        required: false
        example: 9
        type: integer
        enumValues: []
        exampleWasSpecified: false
        nullable: true
        custom: []
      per_page:
        name: per_page
        description: ''
        required: false
        example: 2
        type: integer
        enumValues: []
        exampleWasSpecified: false
        nullable: true
        custom: []
    cleanBodyParameters:
      page: 9
      per_page: 2
    fileParameters: []
    responses:
      -
        status: 200
        content: '{"data":[{"id":18,"job_title":{"id":15,"title_name":"IT Operational","created_at":"2024-10-24T09:22:20.000000Z","updated_at":null},"post_title":"Hand Presser","location":"Jakarta","level_type":"Junior","employment_type":"Work From Home","created_at":"2024-10-24T09:22:21.000000Z","created_at_human":"2 months ago","updated_at":"2024-10-24T09:22:21.000000Z","company":{"id":5,"email":"sinarmas@example.com","name":"Sinarmas","user_type":"company","created_at":"2024-10-24T09:22:21.000000Z","company_profile":{"id":3,"company_name":null,"address":"Jalan Merdeka","location":"Jakarta","about_company":null,"company_size":10000,"founded_in":"1986-01-01","photo":"http:\/\/localhost:7700\/storage\/assets\/no-image.jpeg","website_url":null,"facebook_url":null,"instagram_url":null,"twitter_url":null,"linked_in_url":null,"created_at":"2024-10-24T09:22:21.000000Z","updated_at":"2024-10-24T09:22:21.000000Z"}}},{"id":1,"job_title":{"id":14,"title_name":"IT Infrastructure","created_at":"2024-10-24T09:22:20.000000Z","updated_at":null},"post_title":"Library Science Teacher","location":"Medan","level_type":"Middle","employment_type":"Remote","created_at":"2024-10-24T09:22:21.000000Z","created_at_human":"2 months ago","updated_at":"2024-10-24T09:22:21.000000Z","company":{"id":5,"email":"sinarmas@example.com","name":"Sinarmas","user_type":"company","created_at":"2024-10-24T09:22:21.000000Z","company_profile":{"id":3,"company_name":null,"address":"Jalan Merdeka","location":"Jakarta","about_company":null,"company_size":10000,"founded_in":"1986-01-01","photo":"http:\/\/localhost:7700\/storage\/assets\/no-image.jpeg","website_url":null,"facebook_url":null,"instagram_url":null,"twitter_url":null,"linked_in_url":null,"created_at":"2024-10-24T09:22:21.000000Z","updated_at":"2024-10-24T09:22:21.000000Z"}}}],"pagination":{"current_page":9,"last_page":25,"per_page":2,"total":50}}'
        headers:
          cache-control: 'no-cache, private'
          content-type: application/json
          x-trace-id: cd628898-c4d7-4838-b1f9-64f87da02c98
          access-control-allow-origin: '*'
        description: null
        custom: []
    responseFields: []
    auth: []
    controller: null
    method: null
    route: null
    custom: []
  -
    httpMethods:
      - GET
    uri: 'api/v1/posts/{id}'
    metadata:
      groupName: Post
      groupDescription: ''
      subgroup: ''
      subgroupDescription: ''
      title: 'Get Post by ID'
      description: ''
      authenticated: false
      custom: []
    headers:
      Content-Type: application/json
      Accept: application/json
    urlParameters:
      id:
        name: id
        description: 'The ID of the post'
        required: true
        example: 18
        type: integer
        enumValues: []
        exampleWasSpecified: false
        nullable: false
        custom: []
    cleanUrlParameters:
      id: 18
    queryParameters: []
    cleanQueryParameters: []
    bodyParameters: []
    cleanBodyParameters: []
    fileParameters: []
    responses:
      -
        status: 200
        content: '{"message":"Success","data":{"id":18,"post_title":"Hand Presser","location":"Jakarta","overview":"As a Human Resources Coordinator, you will work within a Product Delivery Team fused with UX, engineering, product and data talent. You will help the team design beautiful interfaces that solve business challenges for our clients. We work with a number of Tier 1 banks on building web-based applications for AML, KYC and Sanctions List management workflows. This role is ideal if you are looking to segue your career into the FinTech or Big Data arenas.","responsablities":"<ul>\n<li>Be involved in every step of the product design cycle from discovery to developer handoff and user acceptance testing.<\/li>\n<li>Work with BAs, product managers, and tech teams to lead the Product Design.<\/li>\n<li>Maintain quality of the design process and ensure that when designs are translated into code they accurately reflect the design specifications.<\/li>\n<li>Accurately estimate design tickets during planning sessions.<\/li>\n<li>Contribute to sketching sessions involving non-designers.<\/li>\n<li>Create, iterate and maintain UI deliverables including sketch files, style guides, high fidelity prototypes, micro interaction specifications, and pattern libraries.<\/li>\n<li>Ensure design choices are data led by identifying assumptions to test each sprint, and work with the analysts in your team to plan moderated usability test sessions.<\/li>\n<li>Design pixel perfect responsive UI''s and understand that adopting common interface patterns is better for UX than reinventing the wheel.<\/li>\n<li>Present your work to the wider business at Show & Tell sessions.<\/li>\n<\/ul>","requirements":"<ul>\n<li>4+ years of system administration experience with the Microsoft Server platform (2012\/2016, Microsoft IIS, Active Directory).<\/li>\n<li>3+ years of hands-on system administration experience with AWS (EC2, Elastic Load Balancing, Multi AZ, etc.).<\/li>\n<li>4+ years of SQL Server, MySQL experience.<\/li>\n<li>Working knowledge of encryption techniques and protocols, multi-factor authentication, data protection, penetration testing, security threats.<\/li>\n<li>Bachelor''s Degree, or 4+ years of hands-on IT experience.<\/li>\n<\/ul>","skills":"<ul>\n<li>Programming experience developing web applications with the Microsoft .NET stack and a basic knowledge of SQL.<\/li>\n<li>Development experience with Angular, Node.JS, or ColdFusion.<\/li>\n<li>HTML, CSS, XHTML, XML.<\/li>\n<li>Hypervisors, SANs, load balancers, firewalls, and Web Application Firewall (WAF).<\/li>\n<li>Experience with Higher Logic (a collaboration platform).<\/li>\n<li>MongoDB, Drupal.<\/li>\n<li>Mobile App Development (iOS and Android).<\/li>\n<li>Episerver CMS.<\/li>\n<li>Microsoft Team Foundation Server.<\/li>\n<li>Speaker Management System (Planstone).<\/li>\n<\/ul>","experience_year":3,"employment_type":"Work From Home","level_type":"Junior","salary":"15000000","total_applied":0,"created_at":"2024-10-24T09:22:21.000000Z","created_at_human":"2 months ago","updated_at":"2024-10-24T09:22:21.000000Z","company":{"id":5,"email":"sinarmas@example.com","name":"Sinarmas","user_type":"company","created_at":"2024-10-24T09:22:21.000000Z","company_profile":{"id":3,"company_name":null,"address":"Jalan Merdeka","location":"Jakarta","about_company":null,"company_size":10000,"founded_in":"1986-01-01","photo":"http:\/\/localhost:7700\/storage\/assets\/no-image.jpeg","website_url":null,"facebook_url":null,"instagram_url":null,"twitter_url":null,"linked_in_url":null,"created_at":"2024-10-24T09:22:21.000000Z","updated_at":"2024-10-24T09:22:21.000000Z"}}}}'
        headers:
          cache-control: 'no-cache, private'
          content-type: application/json
          x-trace-id: 99752fc9-5ba0-44cd-b9c7-fd69e13e69bc
          access-control-allow-origin: '*'
        description: null
        custom: []
    responseFields: []
    auth: []
    controller: null
    method: null
    route: null
    custom: []
  -
    httpMethods:
      - POST
    uri: 'api/v1/posts/apply/{id}'
    metadata:
      groupName: Post
      groupDescription: ''
      subgroup: ''
      subgroupDescription: ''
      title: 'Apply Job'
      description: ''
      authenticated: false
      custom: []
    headers:
      Authorization: 'Bearer <token>'
      Content-Type: application/json
      Accept: application/json
    urlParameters:
      id:
        name: id
        description: 'The ID of the post'
        required: true
        example: 11
        type: integer
        enumValues: []
        exampleWasSpecified: false
        nullable: false
        custom: []
    cleanUrlParameters:
      id: 11
    queryParameters: []
    cleanQueryParameters: []
    bodyParameters: []
    cleanBodyParameters: []
    fileParameters: []
    responses: []
    responseFields: []
    auth: []
    controller: null
    method: null
    route: null
    custom: []
